…
### 3. List all currency in `orcamento` and `receita` columns of `imdb_completa` dataset.\| Liste todas as moedas que aparecem nas colunas `orcamento` e `receita` da base `imdb_completa`.

``` r
currency <- imdb |> 
  filter(across(c(orcamento, receita), ~!is.na(.)))  |> 
  summarise(unique(across(
    .cols = c(orcamento, receita),
    .fns = ~ str_remove((.x), pattern = '[0-9]+')))) 

currency
```

    ## # A tibble: 62 × 2
    ##    orcamento receita
    ##    <chr>     <chr>  
    ##  1 "$ "      "$ "   
    ##  2 "NOK "    "$ "   
    ##  3 "GBP "    "$ "   
    ##  4 "DEM "    "$ "   
    ##  5 "FRF "    "$ "   
    ##  6 "SEK "    "$ "   
    ##  7 "ITL "    "$ "   
    ##  8 "JPY "    "$ "   
    ##  9 "RUR "    "$ "   
    ## 10 "AUD "    "$ "   
    ## # … with 52 more rows
…
